/home/lasaro/git/gbc074gsi028/lab/atomix_lab2/src/main/java/CustomPrimitiveClient.java
/home/lasaro/git/gbc074gsi028/lab/atomix_lab2/src/main/java/PrimitiveClient.java
/home/lasaro/git/gbc074gsi028/lab/atomix_lab2/src/main/java/Server.java
